{
	"info": {
		"_postman_id": "bde35892-122b-4862-92d4-83c267b29439",
		"name": "Todo App - API",
		"schema": "https://schema.getpostman.com/json/collection/v2.1.0/collection.json"
	},
	"item": [
		{
			"name": "http://localhost:4000/api/auth",
			"request": {
				"auth": {
					"type": "noauth"
				},
				"method": "GET",
				"header": [
					{
						"key": "x-auth-token",
						"value": "eyJhbGciOiJIUzI1NiIsInR5cCI6IkpXVCJ9.eyJ1c2VyIjp7ImlkIjoiNjI3MTQxMmU4MmFmOWQxOWJjNjM3ZDM5In0sImlhdCI6MTY1MTYwNTEyNywiZXhwIjoxNjUxNjA4NzI3fQ.n-X79Fj4LcGSC6VlamSlhXNkcXGqW249xg1hJtkX9F4",
						"type": "text"
					}
				],
				"url": {
					"raw": "http://localhost:4000/api/auth",
					"protocol": "http",
					"host": [
						"localhost"
					],
					"port": "4000",
					"path": [
						"api",
						"auth"
					]
				}
			},
			"response": []
		},
		{
			"name": "Create user",
			"request": {
				"method": "POST",
				"header": [],
				"body": {
					"mode": "raw",
					"raw": "{\r\n    \"name\": \"test user 03\",\r\n    \"email\": \"example3@example.com\",\r\n    \"password\": \"pw1234\"\r\n}",
					"options": {
						"raw": {
							"language": "json"
						}
					}
				},
				"url": {
					"raw": "http://localhost:4000/api/users",
					"protocol": "http",
					"host": [
						"localhost"
					],
					"port": "4000",
					"path": [
						"api",
						"users"
					]
				}
			},
			"response": []
		},
		{
			"name": "Login",
			"request": {
				"method": "POST",
				"header": [],
				"body": {
					"mode": "raw",
					"raw": "{\r\n    \"email\": \"example@example.com\",\r\n    \"password\": \"pw1234\"\r\n}",
					"options": {
						"raw": {
							"language": "json"
						}
					}
				},
				"url": {
					"raw": "http://localhost:4000/api/auth",
					"protocol": "http",
					"host": [
						"localhost"
					],
					"port": "4000",
					"path": [
						"api",
						"auth"
					]
				}
			},
			"response": []
		},
		{
			"name": "Get User",
			"request": {
				"method": "GET",
				"header": [
					{
						"key": "x-auth-token",
						"value": "eyJhbGciOiJIUzI1NiIsInR5cCI6IkpXVCJ9.eyJ1c2VyIjp7ImlkIjoiNjI3MmFkY2IwMzhkMjkwZDdlZDRhNjgzIn0sImlhdCI6MTY1MTkzODgzNiwiZXhwIjoxNjUxOTQyNDM2fQ.f_X1VzNY-Q4YRGYx3xk5UCFFnKOKpSoZ9U4cW35zJfI",
						"type": "text"
					}
				],
				"url": {
					"raw": "http://localhost:4000/api/auth",
					"protocol": "http",
					"host": [
						"localhost"
					],
					"port": "4000",
					"path": [
						"api",
						"auth"
					]
				}
			},
			"response": []
		},
		{
			"name": "Get Collections",
			"request": {
				"method": "GET",
				"header": [
					{
						"key": "x-auth-token",
						"value": "eyJhbGciOiJIUzI1NiIsInR5cCI6IkpXVCJ9.eyJ1c2VyIjp7ImlkIjoiNjI3MmFkY2IwMzhkMjkwZDdlZDRhNjgzIn0sImlhdCI6MTY1MjAwNDA5MywiZXhwIjoxNjUyMDA3NjkzfQ.xkYeJCbiBspakBAg2KiIHukzDwPnnVpBry7F9yXI_tk",
						"type": "text"
					}
				],
				"url": {
					"raw": "http://localhost:4000/api/collections",
					"protocol": "http",
					"host": [
						"localhost"
					],
					"port": "4000",
					"path": [
						"api",
						"collections"
					]
				}
			},
			"response": []
		},
		{
			"name": "Post Collection",
			"request": {
				"method": "POST",
				"header": [
					{
						"key": "x-auth-token",
						"value": "eyJhbGciOiJIUzI1NiIsInR5cCI6IkpXVCJ9.eyJ1c2VyIjp7ImlkIjoiNjI3MmFkY2IwMzhkMjkwZDdlZDRhNjgzIn0sImlhdCI6MTY1MTk1ODA4MSwiZXhwIjoxNjUxOTYxNjgxfQ._myugDYp2AunhC46_OI82xfry9iFnmiJwf70qcTeMfc",
						"type": "text"
					}
				],
				"body": {
					"mode": "raw",
					"raw": "{\r\n    \"name\": \"Collection 7\"\r\n}",
					"options": {
						"raw": {
							"language": "json"
						}
					}
				},
				"url": {
					"raw": "http://localhost:4000/api/collections",
					"protocol": "http",
					"host": [
						"localhost"
					],
					"port": "4000",
					"path": [
						"api",
						"collections"
					]
				}
			},
			"response": []
		},
		{
			"name": "Update Collection",
			"request": {
				"method": "PUT",
				"header": [
					{
						"key": "x-auth-token",
						"value": "eyJhbGciOiJIUzI1NiIsInR5cCI6IkpXVCJ9.eyJ1c2VyIjp7ImlkIjoiNjI3MmFkY2IwMzhkMjkwZDdlZDRhNjgzIn0sImlhdCI6MTY1MTc3NTY4MCwiZXhwIjoxNjUxNzc5MjgwfQ.NpSP_ZSDBXLqD1656bw-IDGnJZmBkMjTtXP0LvK6U3Y",
						"type": "text"
					}
				],
				"body": {
					"mode": "raw",
					"raw": "{\r\n    \"name\": \"Collection Updated\"\r\n}",
					"options": {
						"raw": {
							"language": "json"
						}
					}
				},
				"url": {
					"raw": "http://localhost:4000/api/collections/627419d09af23bbe6f75d928",
					"protocol": "http",
					"host": [
						"localhost"
					],
					"port": "4000",
					"path": [
						"api",
						"collections",
						"627419d09af23bbe6f75d928"
					]
				}
			},
			"response": []
		},
		{
			"name": "Get Collection",
			"protocolProfileBehavior": {
				"disableBodyPruning": true
			},
			"request": {
				"method": "GET",
				"header": [
					{
						"key": "x-auth-token",
						"value": "eyJhbGciOiJIUzI1NiIsInR5cCI6IkpXVCJ9.eyJ1c2VyIjp7ImlkIjoiNjI3MmFkY2IwMzhkMjkwZDdlZDRhNjgzIn0sImlhdCI6MTY1MTc3NTY4MCwiZXhwIjoxNjUxNzc5MjgwfQ.NpSP_ZSDBXLqD1656bw-IDGnJZmBkMjTtXP0LvK6U3Y",
						"type": "text"
					}
				],
				"body": {
					"mode": "raw",
					"raw": "{\r\n    \"name\": \"Collection Updated\"\r\n}",
					"options": {
						"raw": {
							"language": "json"
						}
					}
				},
				"url": {
					"raw": "http://localhost:4000/api/collections/627419d09af23bbe6f75d928",
					"protocol": "http",
					"host": [
						"localhost"
					],
					"port": "4000",
					"path": [
						"api",
						"collections",
						"627419d09af23bbe6f75d928"
					]
				}
			},
			"response": []
		},
		{
			"name": "Delete Collection",
			"request": {
				"method": "DELETE",
				"header": [
					{
						"key": "x-auth-token",
						"value": "eyJhbGciOiJIUzI1NiIsInR5cCI6IkpXVCJ9.eyJ1c2VyIjp7ImlkIjoiNjI3MmFkY2IwMzhkMjkwZDdlZDRhNjgzIn0sImlhdCI6MTY1MTc3NTY4MCwiZXhwIjoxNjUxNzc5MjgwfQ.NpSP_ZSDBXLqD1656bw-IDGnJZmBkMjTtXP0LvK6U3Y",
						"type": "text"
					}
				],
				"body": {
					"mode": "raw",
					"raw": "{\r\n    \"name\": \"Collection Updated\"\r\n}",
					"options": {
						"raw": {
							"language": "json"
						}
					}
				},
				"url": {
					"raw": "http://localhost:4000/api/collections/627419da9af23bbe6f75d92a",
					"protocol": "http",
					"host": [
						"localhost"
					],
					"port": "4000",
					"path": [
						"api",
						"collections",
						"627419da9af23bbe6f75d92a"
					]
				}
			},
			"response": []
		},
		{
			"name": "Post Todo",
			"request": {
				"method": "POST",
				"header": [
					{
						"key": "x-auth-token",
						"value": "eyJhbGciOiJIUzI1NiIsInR5cCI6IkpXVCJ9.eyJ1c2VyIjp7ImlkIjoiNjI3MmFkY2IwMzhkMjkwZDdlZDRhNjgzIn0sImlhdCI6MTY1MjAwNDA5MywiZXhwIjoxNjUyMDA3NjkzfQ.xkYeJCbiBspakBAg2KiIHukzDwPnnVpBry7F9yXI_tk",
						"type": "text"
					}
				],
				"body": {
					"mode": "raw",
					"raw": "{\r\n    \"name\": \"todo 1\",\r\n    \"collectionId\": \"6276e3d7d3d45c9affe972b8\"\r\n}",
					"options": {
						"raw": {
							"language": "json"
						}
					}
				},
				"url": {
					"raw": "http://localhost:4000/api/todos",
					"protocol": "http",
					"host": [
						"localhost"
					],
					"port": "4000",
					"path": [
						"api",
						"todos"
					]
				}
			},
			"response": []
		},
		{
			"name": "Post Todo with tags",
			"request": {
				"method": "POST",
				"header": [
					{
						"key": "x-auth-token",
						"value": "eyJhbGciOiJIUzI1NiIsInR5cCI6IkpXVCJ9.eyJ1c2VyIjp7ImlkIjoiNjI3MmFkY2IwMzhkMjkwZDdlZDRhNjgzIn0sImlhdCI6MTY1MTc4MTg0MywiZXhwIjoxNjUxNzg1NDQzfQ.w1U1I32iMPaysmSP7z4FEbe9hd6F1GBMxdv0jhaBpa4",
						"type": "text"
					}
				],
				"body": {
					"mode": "raw",
					"raw": "{\r\n    \"name\": \"todo 2 with tags\",\r\n    \"collectionId\": \"6274199b9af23bbe6f75d920\",\r\n    \"tags\": [\r\n        \"tag 1\",\r\n        \"tag 2\"\r\n    ]\r\n}",
					"options": {
						"raw": {
							"language": "json"
						}
					}
				},
				"url": {
					"raw": "http://localhost:4000/api/todos",
					"protocol": "http",
					"host": [
						"localhost"
					],
					"port": "4000",
					"path": [
						"api",
						"todos"
					]
				}
			},
			"response": []
		},
		{
			"name": "Get Todos",
			"request": {
				"method": "GET",
				"header": [
					{
						"key": "x-auth-token",
						"value": "eyJhbGciOiJIUzI1NiIsInR5cCI6IkpXVCJ9.eyJ1c2VyIjp7ImlkIjoiNjI3MmFkY2IwMzhkMjkwZDdlZDRhNjgzIn0sImlhdCI6MTY1MTc4MTg0MywiZXhwIjoxNjUxNzg1NDQzfQ.w1U1I32iMPaysmSP7z4FEbe9hd6F1GBMxdv0jhaBpa4",
						"type": "text"
					}
				],
				"url": {
					"raw": "http://localhost:4000/api/todos?collectionId=6274199b9af23bbe6f75d920",
					"protocol": "http",
					"host": [
						"localhost"
					],
					"port": "4000",
					"path": [
						"api",
						"todos"
					],
					"query": [
						{
							"key": "collectionId",
							"value": "6274199b9af23bbe6f75d920"
						}
					]
				}
			},
			"response": []
		},
		{
			"name": "Update Todo",
			"request": {
				"method": "PUT",
				"header": [
					{
						"key": "x-auth-token",
						"value": "eyJhbGciOiJIUzI1NiIsInR5cCI6IkpXVCJ9.eyJ1c2VyIjp7ImlkIjoiNjI3MmFkY2IwMzhkMjkwZDdlZDRhNjgzIn0sImlhdCI6MTY1MTc4MTg0MywiZXhwIjoxNjUxNzg1NDQzfQ.w1U1I32iMPaysmSP7z4FEbe9hd6F1GBMxdv0jhaBpa4",
						"type": "text"
					}
				],
				"body": {
					"mode": "raw",
					"raw": "{\r\n    \"name\": \"todo 4 updated\",\r\n    \"collectionId\": \"6274199b9af23bbe6f75d920\",\r\n    \"tags\":[\r\n        \"tags\",\r\n        \"added\",\r\n        \"via update\"\r\n    ]\r\n}",
					"options": {
						"raw": {
							"language": "json"
						}
					}
				},
				"url": {
					"raw": "http://localhost:4000/api/todos/6274318f989c1ac97db4f5c5",
					"protocol": "http",
					"host": [
						"localhost"
					],
					"port": "4000",
					"path": [
						"api",
						"todos",
						"6274318f989c1ac97db4f5c5"
					]
				}
			},
			"response": []
		},
		{
			"name": "Delete Todo",
			"request": {
				"method": "DELETE",
				"header": [
					{
						"key": "x-auth-token",
						"value": "eyJhbGciOiJIUzI1NiIsInR5cCI6IkpXVCJ9.eyJ1c2VyIjp7ImlkIjoiNjI3MmFkY2IwMzhkMjkwZDdlZDRhNjgzIn0sImlhdCI6MTY1MjAyMjQxNCwiZXhwIjoxNjUyMDI2MDE0fQ.-gHkWzrUtmVS9ZS6PEqPa1BfP1-QRdqWbB4tjIjuQuk",
						"type": "text"
					}
				],
				"body": {
					"mode": "raw",
					"raw": "{\r\n    \"collectionId\": \"6274199b9af23bbe6f75d920\"\r\n}",
					"options": {
						"raw": {
							"language": "json"
						}
					}
				},
				"url": {
					"raw": "http://localhost:4000/api/todos/627433cb989c1ac97db4f5da",
					"protocol": "http",
					"host": [
						"localhost"
					],
					"port": "4000",
					"path": [
						"api",
						"todos",
						"627433cb989c1ac97db4f5da"
					]
				}
			},
			"response": []
		}
	]
}